JSON to DataFrames
…
jsonSimpleChar_lst %>%
  transpose() %>%
  toJSON(auto_unbox = TRUE, pretty=TRUE)

The tidyr Package and Rectangling

There is a consistent way to turn weird, semi-rectangular structures into dataframes. Lets just start by doing it with the tools from the tidyr package.

Lets do this in steps:

tibble(obj = jsonSimpleChar_lst) %>%
    print(n=3)

## # A tibble: 20 x 1
##   obj             
##   <list>          
## 1 <named list [3]>
## 2 <named list [3]>
## 3 <named list [3]>
## # ... with 17 more rows

then:

tibble(obj = jsonSimpleChar_lst) %>%
    unnest_wider(obj) %>%
    print(n=3)

## # A tibble: 20 x 3
##      id name               title            
##   <int> <chr>              <chr>            
## 1     0 Daenerys Targaryen Mother of Dragons
## 2     1 Samwell Tarly      Maester          
## 3     2 Jon Snow           King of the North
## # ... with 17 more rows
What Just Happened?

With the tibble(obj = jsonSimpleChar_lst) statement, we made obj a list-column, or a column in a tibble whose values are lists. So it is a list of lists.

Then we called unnest_wider(obj), whose first argument, with the %>% operator, is actually the first tibble we made. unnest_wider() then looks at the column obj, and says, Well, each row is a list of key value pairs. I can turn the keys into column names and values into the data entries. And do it consistently across all of the rows. Which it does, and boom, you have a tibble like you want.

Other tricks

You can use hoist() to just pull out any particular key that you want, like name. When it does this, by default, it removes it from the obj list once it is made into its own column.

tibble(obj = jsonSimpleChar_lst) %>%
    hoist(obj, "name") %>%
    print(n=3)

## # A tibble: 20 x 2
##   name               obj             
##   <chr>              <list>          
## 1 Daenerys Targaryen <named list [2]>
## 2 Samwell Tarly      <named list [2]>
## 3 Jon Snow           <named list [2]>
## # ... with 17 more rows

What happens if you unnest_longer() instead?

tibble(obj = jsonSimpleChar_lst) %>%
    unnest_longer(obj) %>%
    print(n=7)

## # A tibble: 60 x 2
##   obj          obj_id
##   <named list> <chr> 
## 1 <int [1]>    id    
## 2 <chr [1]>    name  
## 3 <chr [1]>    title 
## 4 <int [1]>    id    
## 5 <chr [1]>    name  
## 6 <chr [1]>    title 
## 7 <int [1]>    id    
## # ... with 53 more rows
…
